{
  "name": "Sovadiup",
  "description": "SOV ADI Journal uploads to Oracle",
  "main": "Main.xaml",
  "dependencies": {},
  "excludedData": [
    "Private:*",
    "*password*"
  ],
  "toolVersion": "17.1.6435.21855",
  "projectVersion": "1.0.6465.26534",
  "packOptions": {},
  "runtimeOptions": {}
}